…
      arrange(Population, Timepoint, Phage_Type) %>%
      ungroup() %>%
      mutate(Timepoint = recode(Timepoint, 
             SE046 = 1,
             SE053 = 2,
             SE055 = 3,
             SE056 = 4,
             SE057 = 5,
             SE058 = 6,
             )
      ) %>%
      complete(Population, Timepoint, Phage_Type, fill = list(Count = 0)) 
    virsorter_time_series

    ## # A tibble: 60 × 4
    ##    Population      Timepoint Phage_Type Count
    ##    <chr>               <dbl> <chr>      <int>
    ##  1 H. thermophilus         1 dsDNAphage     0
    ##  2 H. thermophilus         1 ssDNA          0
    ##  3 H. thermophilus         2 dsDNAphage     0
    ##  4 H. thermophilus         2 ssDNA          0
    ##  5 H. thermophilus         3 dsDNAphage     0
    ##  6 H. thermophilus         3 ssDNA          0
    ##  7 H. thermophilus         5 dsDNAphage     6
    ##  8 H. thermophilus         5 ssDNA          0
    ##  9 H. thermophilus         6 dsDNAphage     0
    ## 10 H. thermophilus         6 ssDNA          0
    ## # ℹ 50 more rows
…
